{
  "dev": {
    "awscloudformation": {
      "AuthRoleName": "amplify-reactamplify-dev-140659-authRole",
      "UnauthRoleArn": "arn:aws:iam::732915709058:role/amplify-reactamplify-dev-140659-unauthRole",
      "AuthRoleArn": "arn:aws:iam::732915709058:role/amplify-reactamplify-dev-140659-authRole",
      "Region": "ap-southeast-1",
      "DeploymentBucketName": "amplify-reactamplify-dev-140659-deployment",
      "UnauthRoleName": "amplify-reactamplify-dev-140659-unauthRole",
      "StackName": "amplify-reactamplify-dev-140659",
      "StackId": "arn:aws:cloudformation:ap-southeast-1:732915709058:stack/amplify-reactamplify-dev-140659/47762a70-03c1-11eb-a2e5-024aa38dc162",
      "AmplifyAppId": "d49c980kkeq6c"
    },
    "categories": {
      "auth": {
        "reactamplify774cbc41": {}
      }
    }
  }
}